<?xml version="1.0" encoding="utf-8"?>
<!-- Generator: Adobe Illustrator 21.1.0, SVG Export Plug-In . SVG Version: 6.00 Build 0)  -->
<svg version="1.1" baseProfile="basic" id="Capa_1" xmlns="http://www.w3.org/2000/svg" xmlns:xlink="http://www.w3.org/1999/xlink"
	 x="0px" y="0px" viewBox="0 0 16 40.3" xml:space="preserve">
<style type="text/css">
	.st0{fill:#474747;}
</style>
<rect class="st0" width="16" height="3.3"/>
<rect x="0" y="37" class="st0" width="16" height="3.3"/>
</svg>
