<?xml version="1.0" encoding="utf-8"?>
<svg version="1.1" baseProfile="basic" id="Capa_1" xmlns="http://www.w3.org/2000/svg" xmlns:xlink="http://www.w3.org/1999/xlink" x="0px" y="0px" viewBox="0 0 20 20" xml:space="preserve">
	<g>
		<circle fill="#040006" cx="10" cy="10" r="10"/>
		<polygon fill="#FFFFFF" points="15.4,8.4 11.6,8.4 11.6,4.6 8.4,4.6 8.4,8.4 4.6,8.4 4.6,11.6 8.4,11.6 8.4,15.4 11.6,15.4 11.6,11.6 15.4,11.6"/>
	</g>
</svg>