<?xml version="1.0" encoding="utf-8"?>
<svg version="1.1" baseProfile="basic" id="walls" xmlns="http://www.w3.org/2000/svg" xmlns:xlink="http://www.w3.org/1999/xlink" x="0px" y="0px" viewBox="0 0 100 75" xml:space="preserve">
	<style type="text/css">
		.background{fill:#cccccc;}
		.active{fill:#FFFFFF;}
		.wall{fill:#efefef;}
		.number{fill: #8c8c8c;font-family: arial;font-size: 14px;}
	</style>

	<rect id="fondo" class="background" width="100" height="75"/>
	<polygon id="back" class="wall" points="77.8,52.8 22.3,52.8 22.2,52.7 22.2,22.3 22.3,22.2 77.8,22.2 77.8,22.2 77.8,52.8 "/>
	<polygon id="top" class="active" points="78.6,19.2 21.4,19.2 5.1,3 94.9,3 "/>
	<polygon id="left" class="active" points="19.2,21.3 19.2,53.7 3,69.9 3,5.1 "/>
	<polygon id="buttom" class="wall" points="21.4,55.8 78.6,55.8 94.9,72 5.1,72 "/>
	<polygon id="right" class="wall" points="80.8,53.6 80.8,21.4 97,5.2 97,69.8 "/>
	<text class="number" x="7" y="42">1</text>
	<text class="number" x="46" y="16">2</text>
</svg>
